<?xml version="1.0" encoding="UTF-8" standalone="no"?>
<!-- Created with Inkscape (http://www.inkscape.org/) -->

<svg
   xmlns:dc="http://purl.org/dc/elements/1.1/"
   xmlns:cc="http://creativecommons.org/ns#"
   xmlns:rdf="http://www.w3.org/1999/02/22-rdf-syntax-ns#"
   xmlns:svg="http://www.w3.org/2000/svg"
   xmlns="http://www.w3.org/2000/svg"
   xmlns:sodipodi="http://sodipodi.sourceforge.net/DTD/sodipodi-0.dtd"
   xmlns:inkscape="http://www.inkscape.org/namespaces/inkscape"
   width="16px"
   height="16px"
   id="svg2996"
   version="1.1"
   inkscape:version="0.48.5 r10040"
   sodipodi:docname="favicon.ico.svg"
   inkscape:export-filename="D:\klarsys\zmote-frontend\favicon.ico.png"
   inkscape:export-xdpi="90.000008"
   inkscape:export-ydpi="90.000008">
  <defs
     id="defs2998" />
  <sodipodi:namedview
     id="base"
     pagecolor="#ffffff"
     bordercolor="#666666"
     borderopacity="1.0"
     inkscape:pageopacity="0.0"
     inkscape:pageshadow="2"
     inkscape:zoom="22.197802"
     inkscape:cx="1.0509898"
     inkscape:cy="8.4084719"
     inkscape:current-layer="layer1"
     showgrid="true"
     inkscape:grid-bbox="true"
     inkscape:document-units="px"
     inkscape:window-width="1366"
     inkscape:window-height="705"
     inkscape:window-x="193"
     inkscape:window-y="1072"
     inkscape:window-maximized="1" />
  <metadata
     id="metadata3001">
    <rdf:RDF>
      <cc:Work
         rdf:about="">
        <dc:format>image/svg+xml</dc:format>
        <dc:type
           rdf:resource="http://purl.org/dc/dcmitype/StillImage" />
        <dc:title></dc:title>
      </cc:Work>
    </rdf:RDF>
  </metadata>
  <g
     id="layer1"
     inkscape:label="Layer 1"
     inkscape:groupmode="layer">
    <path
       sodipodi:type="arc"
       style="fill:none;stroke:#000000;stroke-opacity:1;opacity:0.99"
       id="path2988"
       sodipodi:cx="12.974257"
       sodipodi:cy="13.837624"
       sodipodi:rx="5.4960399"
       sodipodi:ry="5.4960399"
       d="m 7.8236002,11.920025 a 5.4960399,5.4960399 0 1 1 -0.00176,0.0047"
       sodipodi:start="3.4979956"
       sodipodi:end="9.7802612"
       sodipodi:open="true"
       transform="matrix(1.3346767,0,0,1.3428706,-9.3179285,-10.537088)" />
    <path
       sodipodi:type="arc"
       style="fill:#040096;fill-opacity:1;fill-rule:evenodd;stroke:none"
       id="path3766"
       sodipodi:cx="-10.676733"
       sodipodi:cy="8.093812"
       sodipodi:rx="0.63069308"
       sodipodi:ry="0.6081683"
       d="m -11.267792,7.8816187 a 0.63069308,0.6081683 0 1 1 -2.02e-4,5.243e-4"
       sodipodi:start="3.4979956"
       sodipodi:end="9.7802612"
       sodipodi:open="true"
       transform="matrix(2.3776917,0,0,2.4657534,33.39489,-17.051898)" />
    <path
       sodipodi:type="arc"
       style="fill:#040096;fill-opacity:1;fill-rule:evenodd;stroke:none"
       id="path3766-4"
       sodipodi:cx="-10.676733"
       sodipodi:cy="8.093812"
       sodipodi:rx="0.63069308"
       sodipodi:ry="0.6081683"
       d="m -11.267792,7.8816187 a 0.63069308,0.6081683 0 1 1 -2.02e-4,5.243e-4"
       sodipodi:start="3.4979956"
       sodipodi:end="9.7802612"
       sodipodi:open="true"
       transform="matrix(2.3776917,0,0,2.4657534,37.567166,-14.5618)" />
    <path
       sodipodi:type="arc"
       style="fill:#040096;fill-opacity:1;fill-rule:evenodd;stroke:none"
       id="path3766-8"
       sodipodi:cx="-10.676733"
       sodipodi:cy="8.093812"
       sodipodi:rx="0.63069308"
       sodipodi:ry="0.6081683"
       d="m -11.267792,7.8816187 a 0.63069308,0.6081683 0 1 1 -2.02e-4,5.243e-4"
       sodipodi:start="3.4979956"
       sodipodi:end="9.7802612"
       sodipodi:open="true"
       transform="matrix(2.3776917,0,0,2.4657534,37.432019,-9.1924936)" />
    <path
       sodipodi:type="arc"
       style="fill:#040096;fill-opacity:1;fill-rule:evenodd;stroke:none"
       id="path3766-82"
       sodipodi:cx="-10.676733"
       sodipodi:cy="8.093812"
       sodipodi:rx="0.63069308"
       sodipodi:ry="0.6081683"
       d="m -11.267792,7.8816187 a 0.63069308,0.6081683 0 1 1 -2.02e-4,5.243e-4"
       sodipodi:start="3.4979956"
       sodipodi:end="9.7802612"
       sodipodi:open="true"
       transform="matrix(2.3776917,0,0,2.4657534,33.477067,-6.7419985)" />
    <path
       sodipodi:type="arc"
       style="fill:#040096;fill-opacity:1;fill-rule:evenodd;stroke:none"
       id="path3766-45"
       sodipodi:cx="-10.676733"
       sodipodi:cy="8.093812"
       sodipodi:rx="0.63069308"
       sodipodi:ry="0.6081683"
       d="m -11.267792,7.8816187 a 0.63069308,0.6081683 0 1 1 -2.02e-4,5.243e-4"
       sodipodi:start="3.4979956"
       sodipodi:end="9.7802612"
       sodipodi:open="true"
       transform="matrix(2.3776917,0,0,2.4657534,29.25182,-14.741999)" />
    <path
       sodipodi:type="arc"
       style="fill:#040096;fill-opacity:1;fill-rule:evenodd;stroke:none"
       id="path3766-5"
       sodipodi:cx="-10.676733"
       sodipodi:cy="8.093812"
       sodipodi:rx="0.63069308"
       sodipodi:ry="0.6081683"
       d="m -11.267792,7.8816187 a 0.63069308,0.6081683 0 1 1 -2.02e-4,5.243e-4"
       sodipodi:start="3.4979956"
       sodipodi:end="9.7802612"
       sodipodi:open="true"
       transform="matrix(2.3776917,0,0,2.4657534,29.206771,-9.0301173)" />
  </g>
</svg>
