<?xml version="1.0" standalone="no"?>
<!DOCTYPE svg PUBLIC "-//W3C//DTD SVG 1.1//EN" "http://www.w3.org/Graphics/SVG/1.1/DTD/svg11.dtd" >
<svg xmlns="http://www.w3.org/2000/svg">
<metadata>Generated by IcoMoon</metadata>
<defs>
<font id="icomoon" horiz-adv-x="1024">
<font-face units-per-em="1024" ascent="960" descent="-64" />
<missing-glyph horiz-adv-x="1024" />
<glyph unicode="&#x20;" horiz-adv-x="512" d="" />
<glyph unicode="&#x26a1;" glyph-name="zap" horiz-adv-x="640" d="M640 512h-256l192 448-576-576h256l-192-448 576 576z" />
<glyph unicode="&#xe600;" glyph-name="zmote-logo" horiz-adv-x="5120" d="M275.54 960l-52.742-224.844h720.789l57.010 67.723-7.114 157.121zM1175.578 960l-50.845-224.844c422.989 0 845.979 0 1268.968 0l10.773 47.858c2.895 12.115 5.113 23.458 5.63 34.312 0.515 10.855-0.348 20.313-2.497 28.897-8.854 35.338-29.712 62.88-62.541 83.075-32.831 20.192-73.918 30.703-122.448 30.703zM2817.269 960c-86.819 0-147.072-10.803-181.538-32.509-34.465-21.712-58.836-60.446-72.299-116.485l-17.987-75.85h798.558l11.495 48.762c3.023 11.609 4.66 22.553 4.908 33.408 0.231 10.855-0.546 21.108-2.949 30.703-8.601 34.33-28.989 61.073-62.088 81.268-33.1 20.192-74.866 30.703-123.397 30.703zM3523.832 960l-52.741-224.844h845.978l52.742 224.844zM4525.349 960l-52.742-224.844h594.651l52.742 224.844zM452.335 579.838l-418.842-501.165-33.493-142.674h791.919l52.742 224.847h-386.002l354.070 418.992zM1085.871 579.838l-148.845-643.839h314.871l150.742 643.839zM1566.713 579.838l-148.845-643.839h311.077l148.845 643.839zM2041.864 579.838l-152.639-643.839h316.768l150.742 643.839zM2509.429 579.838l-107.824-466.852c-3.182-13.126-4.661-25.267-5.178-36.119-0.516-10.858 0.572-21.212 2.723-29.798 8.599-34.33 29.322-61.328 62.088-81.268s72.332-29.801 120.325-29.801h354.704c86.817 0 147.417 11.054 182.487 32.509 35.067 21.458 59.5 59.943 72.299 116.488l115.987 494.841zM3714.853 579.838l-149.793-643.839h316.768l149.793 643.839zM4437.539 579.838l-53.69-224.847h595.599l52.742 224.847zM4338.591 160.846l-52.742-224.847h594.651l52.742 224.847z" />
<glyph unicode="&#xe601;" glyph-name="power-cord" d="M1024 677.5l-90.506 90.5-178.746-178.752-101.5 101.502 178.75 178.75-90.5 90.5-178.75-178.75-114.748 114.75-86.626-86.624 512.002-512 86.624 86.622-114.752 114.752 178.752 178.75zM794.040 286.21l-443.824 443.824c-95.818-114.904-204.52-292.454-129.396-445.216l-132.248-132.248c-31.112-31.114-31.112-82.024 0-113.136l14.858-14.858c31.114-31.114 82.026-31.114 113.138 0l132.246 132.244c152.764-75.132 330.318 33.566 445.226 129.39z" />
<glyph unicode="&#xe602;" glyph-name="facebook3" d="M512 960c-282.77 0-512-229.23-512-512s229.23-512 512-512v384h-128v128h128v96c0 88.366 71.632 160 160 160h160v-128h-160c-17.674 0-32-14.328-32-32v-96h176l-32-128h-144v-367.87c220.828 56.838 384 257.3 384 495.87 0 282.77-229.23 512-512 512z" />
<glyph unicode="&#xe603;" glyph-name="twitter3" d="M512 960c-282.77 0-512-229.23-512-512s229.23-512 512-512 512 229.23 512 512-229.23 512-512 512zM766.478 578.52c0.252-5.632 0.38-11.296 0.38-16.988 0-173.51-132.070-373.588-373.584-373.588-74.15 0-143.168 21.738-201.276 58.996 10.272-1.218 20.724-1.84 31.322-1.84 61.518 0 118.134 20.992 163.072 56.21-57.458 1.054-105.948 39.020-122.658 91.184 8.018-1.532 16.244-2.36 24.704-2.36 11.976 0 23.578 1.61 34.592 4.61-60.064 12.066-105.326 65.132-105.326 128.75 0 0.554 0 1.104 0.012 1.652 17.7-9.834 37.948-15.742 59.47-16.424-35.232 23.546-58.414 63.736-58.414 109.292 0 24.064 6.476 46.62 17.78 66.010 64.76-79.44 161.51-131.712 270.634-137.19-2.238 9.612-3.4 19.632-3.4 29.924 0 72.512 58.792 131.298 131.304 131.298 37.766 0 71.892-15.944 95.842-41.462 29.908 5.886 58.008 16.814 83.38 31.862-9.804-30.662-30.624-56.394-57.732-72.644 26.56 3.174 51.866 10.232 75.412 20.674-17.594-26.328-39.854-49.454-65.514-67.966z" />
<glyph unicode="&#xe604;" glyph-name="github" d="M512.008 947.358c-282.738 0-512.008-229.218-512.008-511.998 0-226.214 146.704-418.132 350.136-485.836 25.586-4.738 34.992 11.11 34.992 24.632 0 12.204-0.48 52.542-0.696 95.324-142.448-30.976-172.504 60.41-172.504 60.41-23.282 59.176-56.848 74.916-56.848 74.916-46.452 31.778 3.51 31.124 3.51 31.124 51.4-3.61 78.476-52.766 78.476-52.766 45.672-78.27 119.776-55.64 149.004-42.558 4.588 33.086 17.852 55.68 32.506 68.464-113.73 12.942-233.276 56.85-233.276 253.032 0 55.898 20.004 101.574 52.76 137.428-5.316 12.9-22.854 64.972 4.952 135.5 0 0 43.006 13.752 140.84-52.49 40.836 11.348 84.636 17.036 128.154 17.234 43.502-0.198 87.336-5.886 128.256-17.234 97.734 66.244 140.656 52.49 140.656 52.49 27.872-70.528 10.35-122.6 5.036-135.5 32.82-35.856 52.694-81.532 52.694-137.428 0-196.654-119.778-239.95-233.79-252.624 18.364-15.89 34.724-47.046 34.724-94.812 0-68.508-0.596-123.644-0.596-140.508 0-13.628 9.222-29.594 35.172-24.566 203.322 67.776 349.842 259.626 349.842 485.768 0 282.78-229.234 511.998-511.992 511.998z" />
<glyph unicode="&#xe605;" glyph-name="tv" d="M709.44 684.032c-86.624 17.824-174.56 26.848-261.28 26.848s-174.624-9.024-261.28-26.848c-11.2-2.304-20.352-10.432-23.968-21.344-46.144-140.192-46.144-282.336 0-422.528 3.584-10.88 12.736-19.008 23.968-21.312 86.656-17.792 174.56-26.848 261.28-26.848 86.688 0 174.656 9.056 261.28 26.88 11.264 2.304 20.384 10.432 24 21.312 46.112 140.192 46.112 282.336 0 422.528-3.616 10.88-12.768 19.008-24 21.312zM703.008 250.176c-169.888-34.88-339.808-34.88-509.664 0-44.192 134.176-44.192 268.32 0 402.528 169.888 34.912 339.808 34.912 509.664 0 44.192-134.176 44.192-268.32 0-402.528zM987.328 757.76c-6.176 26.048-28 45.504-54.56 48.704-139.52 16.96-281.024 25.536-420.608 25.536-139.552 0-281.056-8.576-420.576-25.504-26.56-3.232-48.352-22.656-54.528-48.736-48.928-205.536-48.928-413.952 0-619.52 6.176-26.048 27.968-45.504 54.528-48.672 67.232-8.192 134.912-14.176 202.592-18.432-3.648-2.336-6.016-4.704-6.016-7.136 0-17.696 100.288-32 224-32s224 14.304 224 32c0 2.432-2.368 4.8-6.016 7.136 67.68 4.256 135.36 10.24 202.56 18.432 26.56 3.2 48.384 22.624 54.56 48.672 48.992 205.568 48.992 413.984 0.064 619.52zM925.056 153.056c-275.264-33.376-550.528-33.376-825.76 0-46.816 196.64-46.816 393.28 0 589.888 275.264 33.408 550.528 33.408 825.76 0 46.816-196.608 46.816-393.248 0-589.888zM848.192 576c26.496 0 48 21.504 48 48s-21.504 48-48 48-48-21.504-48-48 21.504-48 48-48zM848.192 640c8.8 0 16-7.2 16-16s-7.2-16-16-16-16 7.2-16 16 7.168 16 16 16zM880.192 256c8.8 0 16-7.136 16-16 0-8.8-7.2-16-16-16h-96c-8.864 0-16 7.2-16 16 0 8.864 7.136 16 16 16h96zM912.192 352c8.8 0 16-7.136 16-16 0-8.8-7.2-16-16-16h-96c-8.864 0-16 7.2-16 16 0 8.864 7.136 16 16 16h96zM912.192 448c8.8 0 16-7.168 16-16s-7.2-16-16-16h-96c-8.864 0-16 7.168-16 16s7.136 16 16 16h96zM432.16 582.272c8.832 0.352 16-6.528 16-15.36s-7.2-16.256-16-16.576l-119.968-8.224c-8.736-0.896-16.864-8.768-18.048-17.472l-5.344-60.64c-0.352-8.8-7.84-16-16.576-16-8.768 0-15.584 7.2-15.136 16l9.76 89.152c1.472 8.704 9.824 16.64 18.56 17.632l146.752 11.488z" />
<glyph unicode="&#xe606;" glyph-name="world" d="M496 960c-273.952 0-496-222.048-496-496s222.048-496 496-496 496 222.048 496 496-222.048 496-496 496zM927.2 480h-191.872c-1.76 70.88-14.368 138.592-36.736 200.576 43.2 18.016 83.136 41.984 119.552 70.304 64.736-72.672 105.216-167.040 109.056-270.88zM478.304 32.896c-53.184 44.288-97.792 101.792-130.432 168.576 41.888 13.088 86.272 20.256 132.128 21.728v-190.368c-0.576 0-1.12 0.032-1.696 0.064zM513.632 895.104c60.352-50.24 109.6-117.536 142.912-196.032-45.632-15.584-94.112-24.64-144.576-26.24v222.368c0.608-0.032 1.12-0.064 1.664-0.096zM566.944 889.664c88.32-14.688 167.552-55.936 229.248-115.648-33.504-25.696-70.112-47.456-109.696-63.936-29.12 69.024-69.984 130.048-119.552 179.584zM480 895.2v-222.368c-50.464 1.632-98.976 10.656-144.576 26.24 33.312 78.496 82.56 145.792 142.912 196.032 0.576 0.032 1.088 0.064 1.664 0.096zM305.472 710.048c-39.52 16.48-76.16 38.24-109.664 63.936 61.664 59.712 140.928 100.96 229.248 115.648-49.6-49.504-90.432-110.528-119.584-179.584zM323.36 669.568c49.344-17.12 101.92-27.104 156.64-28.768v-160.8h-191.328c1.728 67.008 13.6 131.040 34.688 189.568zM480 448v-192.8c-50.464-1.536-99.264-9.792-145.248-24.608-27.712 65.984-44.064 139.488-46.080 217.408h191.328zM425.056 38.336c-79.136 13.152-151.008 47.616-209.44 97.664 31.52 21.856 65.6 40.352 102.016 54.4 27.904-57.856 64.416-109.216 107.424-152.064zM512 32.8v190.368c45.824-1.472 90.24-8.64 132.128-21.728-32.672-66.784-77.248-124.288-130.432-168.576-0.544 0-1.12-0.032-1.696-0.064zM674.368 190.4c36.384-14.048 70.432-32.576 102.016-54.4-58.432-50.016-130.304-84.512-209.44-97.664 43.008 42.848 79.488 94.208 107.424 152.064zM657.248 230.592c-46.016 14.816-94.816 23.072-145.248 24.608v192.8h191.328c-2.016-77.92-18.4-151.424-46.080-217.408zM512 480v160.8c54.688 1.664 107.264 11.616 156.64 28.736 21.056-58.528 32.928-122.56 34.688-189.568h-191.328zM173.888 750.88c36.416-28.32 76.352-52.288 119.52-70.304-22.368-61.984-34.976-129.696-36.736-200.576h-191.872c3.84 103.84 44.32 198.208 109.088 270.88zM64.8 448h191.872c1.984-81.76 19.072-158.976 48.096-228.384-40.544-15.808-78.336-36.864-113.216-61.792-75.136 74.784-122.56 177.024-126.752 290.176zM800.448 157.856c-34.88 24.896-72.672 45.984-113.248 61.792 29.056 69.408 46.112 146.624 48.128 228.384h191.872c-4.192-113.184-51.648-215.424-126.752-290.176z" />
<glyph unicode="&#xe607;" glyph-name="connection" horiz-adv-x="1280" d="M640 384c105.87 0 201.87-43.066 271.402-112.598l-90.468-90.468c-46.354 46.356-110.356 75.066-180.934 75.066s-134.578-28.71-180.934-75.066l-90.468 90.468c69.532 69.532 165.532 112.598 271.402 112.598zM187.452 452.548c120.88 120.88 281.598 187.452 452.548 187.452s331.668-66.572 452.55-187.452l-90.51-90.508c-96.706 96.704-225.28 149.96-362.040 149.96-136.762 0-265.334-53.256-362.038-149.962l-90.51 90.51zM988.784 825.562c106.702-45.132 202.516-109.728 284.782-191.996v0l-90.508-90.508c-145.056 145.056-337.92 224.942-543.058 224.942-205.14 0-398-79.886-543.058-224.942l-90.51 90.51c82.268 82.266 178.082 146.862 284.784 191.994 110.504 46.738 227.852 70.438 348.784 70.438s238.278-23.7 348.784-70.438zM576 64c0 35.346 28.654 64 64 64s64-28.654 64-64c0-35.346-28.654-64-64-64s-64 28.654-64 64z" />
<glyph unicode="&#xe608;" glyph-name="settings" d="M972.512 554.24l-98.048 19.648c-4.928 14.176-10.752 27.936-17.184 41.248l55.552 83.328c16.928 25.376 13.568 59.2-8 80.736l-61.568 61.568c-12.384 12.384-28.736 18.752-45.312 18.752-12.256 0-24.64-3.52-35.424-10.752l-83.328-55.52c-13.376 6.464-27.136 12.224-41.312 17.152l-19.648 98.080c-5.952 29.952-32.256 51.456-62.752 51.456h-87.040c-30.496 0-56.768-21.536-62.752-51.456l-19.648-98.080c-14.176-4.928-27.936-10.72-41.248-17.152l-83.296 55.52c-10.848 7.232-23.2 10.752-35.488 10.752-16.544 0-32.896-6.368-45.28-18.752l-61.536-61.568c-21.568-21.568-24.928-55.36-8-80.736l55.52-83.328c-6.464-13.344-12.224-27.104-17.152-41.28l-98.112-19.616c-29.92-5.984-51.456-32.256-51.456-62.752v-87.040c0-30.496 21.536-56.8 51.456-62.752l98.080-19.68c4.928-14.176 10.72-27.936 17.152-41.248l-55.488-83.328c-16.928-25.376-13.568-59.2 8-80.736l61.568-61.568c12.384-12.384 28.736-18.752 45.28-18.752 12.288 0 24.672 3.552 35.456 10.752l83.328 55.552c13.344-6.496 27.104-12.256 41.28-17.184l19.616-98.048c5.984-29.952 32.256-51.488 62.752-51.488h87.040c30.496 0 56.8 21.568 62.752 51.488l19.68 98.048c14.176 4.928 27.936 10.752 41.248 17.184l83.328-55.552c10.816-7.2 23.2-10.752 35.424-10.752 16.576 0 32.928 6.368 45.312 18.752l61.568 61.568c21.568 21.568 24.928 55.36 8 80.736l-55.552 83.328c6.496 13.376 12.256 27.136 17.184 41.312l98.048 19.616c29.92 5.92 51.488 32.256 51.488 62.752v87.040c0 30.496-21.568 56.768-51.488 62.752zM861.888 384.8c-22.24-4.448-40.448-20.32-47.872-41.76-4.128-11.808-8.928-23.264-14.304-34.368-9.952-20.448-8.256-44.576 4.32-63.424l55.552-83.328-61.568-61.568-83.328 55.552c-10.688 7.136-23.072 10.752-35.488 10.752-9.504 0-19.072-2.112-27.872-6.368-11.136-5.376-22.56-10.24-34.432-14.368-21.376-7.424-37.248-25.632-41.696-47.872l-19.68-98.112h-87.040l-19.616 98.112c-4.448 22.24-20.32 40.448-41.728 47.872-11.808 4.128-23.296 8.928-34.4 14.304-8.832 4.32-18.368 6.432-27.904 6.432-12.448 0-24.8-3.616-35.488-10.752l-83.328-55.552-61.568 61.568 55.52 83.328c12.576 18.88 14.208 43.008 4.384 63.36-5.376 11.136-10.208 22.56-14.336 34.432-7.424 21.376-25.664 37.248-47.872 41.696l-98.080 19.68-0.064 87.072 98.112 19.616c22.208 4.448 40.448 20.32 47.872 41.728 4.128 11.808 8.896 23.296 14.304 34.4 9.92 20.416 8.256 44.544-4.352 63.392l-55.488 83.328 61.536 61.568 83.328-55.52c10.688-7.136 23.072-10.752 35.488-10.752 9.504 0 19.040 2.112 27.872 6.368 11.104 5.376 22.56 10.208 34.4 14.336 21.408 7.424 37.28 25.664 41.728 47.872l19.648 98.080 87.040 0.032 19.616-98.112c4.448-22.208 20.32-40.448 41.76-47.872 11.808-4.128 23.264-8.896 34.368-14.304 8.864-4.288 18.368-6.4 27.936-6.4 12.448 0 24.8 3.616 35.488 10.752l83.328 55.52 61.568-61.568-55.552-83.328c-12.576-18.88-14.176-42.976-4.384-63.36 5.376-11.104 10.24-22.56 14.368-34.4 7.424-21.408 25.632-37.28 47.872-41.728l98.048-19.648 0.096-87.040-98.112-19.648zM512 671.968c-123.68 0-224-100.32-224-224 0-123.712 100.32-224 224-224s224 100.32 224 224c0 123.68-100.32 224-224 224zM512 251.936c-108.224 0-196 87.808-196 196 0 108.224 87.776 196 196 196 108.192 0 196-87.776 196-196 0-108.192-87.808-196-196-196zM512 575.968c-70.72 0-128-57.28-128-128 0-70.688 57.28-128 128-128 70.688 0 128 57.312 128 128s-57.312 128-128 128zM512 351.936c-52.992 0-96 43.008-96 96s43.008 96 96 96 96-43.008 96-96c0-52.992-43.008-96-96-96z" />
<glyph unicode="&#xf030;" glyph-name="radio-tower" d="M306.838 569.261c15.868 16.306 15.868 42.731 0 59.037-20.521 21.116-30.643 48.417-30.705 76.124 0.062 27.77 10.183 55.039 30.705 76.186 15.868 16.337 15.868 42.764 0 59.069-7.934 8.184-18.272 12.275-28.706 12.275-10.371 0-20.804-4.029-28.738-12.213-36.266-37.297-54.633-86.433-54.57-135.317-0.062-48.792 18.305-97.927 54.57-135.161 15.868-16.306 41.576-16.306 57.444 0zM149.093 926.858c-8.121 8.309-18.68 12.463-29.3 12.463-10.558 0-21.179-4.154-29.237-12.463-59.756-61.349-89.805-142.002-89.743-222.436-0.062-80.341 29.987-161.15 89.681-222.437 16.181-16.618 42.356-16.618 58.537 0 16.118 16.587 16.118 43.513 0 60.067-43.7 44.98-65.44 103.456-65.44 162.368s21.74 117.449 65.44 162.368c16.118 16.651 16.118 43.577 0.062 60.070zM513.031 600.153c57.351 0 103.956 46.574 103.956 103.956s-46.605 103.955-103.956 103.955c-57.381 0-103.956-46.573-103.956-103.955s46.575-103.956 103.956-103.956zM933.539 926.233c-16.181 16.618-42.355 16.618-58.475 0-16.181-16.587-16.181-43.513 0-60.068 43.668-44.918 65.409-103.456 65.409-162.368 0-58.85-21.805-117.387-65.473-162.306-16.117-16.618-16.117-43.575 0.062-60.068 8.059-8.309 18.616-12.463 29.237-12.463 10.558 0 21.178 4.154 29.236 12.463 59.726 61.287 89.774 142.096 89.649 222.437 0.129 80.278-29.92 161.087-89.645 222.373zM513.281 517.127v0c-26.489-0.062-53.040 6.466-77.091 19.429l-201.133-536.146h95.209l54.819 63.973h255.891l53.977-63.973h95.272l-201.101 536.021c-23.74-12.776-49.729-19.304-75.843-19.304zM512.656 486.483l64.348-230.183h-127.945l63.597 230.183zM385.086 128.355l63.974 63.973h127.944l63.974-63.973h-255.892zM717.194 838.958c-15.868-16.306-15.868-42.731 0-59.037 20.491-21.116 30.611-48.511 30.674-76.124-0.062-27.77-10.183-55.102-30.674-76.187-15.868-16.336-15.868-42.763 0-59.068 7.871-8.184 18.242-12.213 28.737-12.213 10.309 0 20.741 4.029 28.675 12.213 36.298 37.234 54.665 86.433 54.54 135.255 0.125 48.792-18.181 97.927-54.54 135.161-15.805 16.306-41.544 16.306-57.412 0z" />
<glyph unicode="&#xf031;" glyph-name="tools" d="M286.547 494.984c16.843-16.812 81.716-85.279 81.716-85.279l35.968 37.093-56.373 58.248 108.214 114.934c0 0-48.842 47.623-27.468 28.655 20.438 75.903 1.812 160.589-55.842 220.243-57.154 59.186-138.37 78.592-211.337 58.218l123.653-127.715-32.53-125.309-121.060-33.438-123.59 127.748c-19.718-75.436-0.969-159.339 56.311-218.556 60.093-62.123 146.621-80.373 222.338-54.842zM698.815 370.769l-149.121-147.308 245.932-254.805c20.062-20.812 46.498-31.188 72.872-31.188 26.25 0 52.624 10.375 72.811 31.188 40.249 41.624 40.249 108.997 0 150.62l-242.494 251.493zM1023.681 798.162l-156.621 161.839-461.673-477.298 56.373-58.248-276.335-285.616-63.154-33.749-89.217-145.559 22.719-23.562 140.839 92.247 32.655 65.312 276.336 285.554 56.404-58.248 461.674 477.328z" />
<glyph unicode="&#xf033;" glyph-name="rocket" d="M716.737 835.944c-71.926-41.686-148.041-96.13-218.436-166.555-45-45.031-81.213-88.78-110.39-129.778l-178.373-32.961-209.491-209.647 186.818-5.815 131.562 131.562c-46.439-96.224-50.536-160.019-50.536-160.019l58.854-58.792c0 0 65.827 6.255 162.737 53.163l-134.375-134.221 5.88-186.881 209.585 209.521 33.086 179.252c41.403 29.020 85.185 65.046 129.716 109.545 70.425 70.455 124.837 146.541 166.555 218.466-45.97 9.351-88.125 28.488-121.397 61.668-33.275 33.367-52.538 75.523-61.795 121.492zM786.161 873.157c5.004-45 19.952-81.274 44.78-105.98 24.769-24.985 60.98-39.902 106.138-44.844 65.984 133.344 86.874 237.667 86.874 237.667s-104.323-20.858-237.792-86.843z" />
<glyph unicode="&#xf034;" glyph-name="rss" horiz-adv-x="768" d="M128 320c-70.656 0-128-57.375-128-128s57.344-128 128-128 128 57.375 128 128-57.344 128-128 128zM128 576c0 0-64-2-64-64s64-64 64-64c141.375 0 256-114.625 256-256 0 0 0-64 64-64s64 64 64 64c0 212-171.969 384-384 384zM128 832c0 0-64 0-64-64s64-64 64-64c282.75 0 512-229.25 512-512 0 0 0-64 64-64s64 64 64 64c0 353.406-286.5 640-640 640z" />
<glyph unicode="&#xf038;" glyph-name="device-mobile" horiz-adv-x="640" d="M576 960h-512c-35.312 0-64-28.688-64-64v-896c0-35.375 28.688-64 64-64h512c35.375 0 64 28.625 64 64v896c0 35.312-28.625 64-64 64zM288 896h64c17.625 0 32-14.344 32-32s-14.375-32-32-32h-64c-17.656 0-32 14.344-32 32s14.344 32 32 32zM352 0h-64c-17.656 0-32 14.375-32 32s14.344 32 32 32h64c17.625 0 32-14.375 32-32s-14.375-32-32-32zM576 128h-512v640h512v-640z" />
<glyph unicode="&#xf064;" glyph-name="versions" horiz-adv-x="896" d="M0 256h128v64h-64v256h64v64h-128v-384zM384 768v-640h512v640h-512zM768 256h-256v384h256v-384zM192 192h128v64h-64v384h64v64h-128v-512z" />
<glyph unicode="&#xf096;" glyph-name="database" horiz-adv-x="768" d="M384 0c-212.031 0-384 57.375-384 128 0 38.625 0 80.875 0 128 0 11.125 5.562 21.688 13.562 32 42.813-55.125 191.688-96 370.438-96s327.625 40.875 370.438 96c8-10.312 13.562-20.875 13.562-32 0-37.062 0-76.375 0-128 0-70.625-172-128-384-128zM384 256c-212.031 0-384 57.375-384 128 0 38.656 0 80.844 0 128 0 6.781 2.562 13.375 6 19.906v0c1.938 4.094 4.5 8.125 7.562 12.094 42.813-55.094 191.688-96 370.438-96s327.625 40.906 370.438 96c3.062-3.969 5.625-8 7.562-12.094v0c3.438-6.531 6-13.125 6-19.906 0-37.062 0-76.344 0-128 0-70.625-172-128-384-128zM384 512c-212.031 0-384 57.344-384 128 0 20.219 0 41.594 0 64 0 20.344 0 41.469 0 64 0 70.656 171.969 128 384 128 212 0 384-57.344 384-128 0-19.969 0-41.156 0-64 0-19.594 0-40.25 0-64 0-70.656-172-128-384-128zM384 832c-141.375 0-256-28.594-256-64s114.625-64 256-64 256 28.594 256 64-114.625 64-256 64z" />
<glyph unicode="&#xf0d6;" glyph-name="circuit-board" d="M320 704c35.346 0 64-28.654 64-64s-28.654-64-64-64-64 28.654-64 64c0 35.346 28.654 64 64 64zM960 192c0-106.039-85.961-192-192-192h-448l192 192h81.128c22.132-38.258 63.494-64 110.872-64 70.692 0 128 57.308 128 128s-57.308 128-128 128c-47.377 0-88.74-25.742-110.872-64h-145.128l-291.956-291.956c-55.199 33.724-92.044 94.536-92.044 163.956v512c0 106.039 85.961 192 192 192v-145.128c-38.258-22.132-64-63.495-64-110.872 0-70.692 57.308-128 128-128 47.276 0 88.56 25.633 110.727 63.756l162.416 0.219c22.136-38.244 63.49-63.975 110.857-63.975 70.692 0 128 57.308 128 128s-57.308 128-128 128c-47.388 0-88.758-25.753-110.887-64.025l-162.097-0.219c-11.246 19.54-27.503 35.828-47.016 47.116v145.128h384c106.039 0 192-85.961 192-192v-512zM640 256c0 35.346 28.654 64 64 64s64-28.654 64-64c0-35.346-28.654-64-64-64s-64 28.654-64 64zM640 640c0 35.346 28.654 64 64 64s64-28.654 64-64c0-35.346-28.654-64-64-64s-64 28.654-64 64z" />
<glyph unicode="&#xf27c;" glyph-name="device-desktop" d="M960 896c-32 0-864 0-896 0s-64-32-64-64 0-544 0-576 32-64 64-64 320 0 320 0-192-64-192-128c0-32 32-64 64-64s480 0 512 0 64 32 64 64c0 64-192 128-192 128s288 0 320 0 64 32 64 64 0 544 0 576-32 64-64 64zM960 256h-896v576h896v-576zM896 768h-192c-384-64-542-300-576-384v-64h768v448z" />
</font></defs></svg>